{
  "$schema": "http://json-schema.org/draft-04/schema#",
  "type": "object",
  "properties": {
    "data": {
      "type": "array",
      "items": [
        {
          "type": "object",
          "properties": {
            "user_id": {
              "type": "integer"
            },
            "department_id": {
              "type": "integer"
            },
            "position_id": {
              "type": "integer"
            },
            "salary": {
              "type": "number"
            }
          },
          "required": [
            "user_id",
            "department_id",
            "position_id",
            "salary"
          ]
        }
      ]
    }
  },
  "required": [
    "data"
  ]
}
